<svg width="21" height="21" viewBox="0 0 21 21" fill="none" xmlns="http://www.w3.org/2000/svg">
<path opacity="0.5" d="M15.8287 10.4999L20.5253 5.80347C20.8314 5.49729 21 5.09048 21 4.65761C21 4.22475 20.8314 3.81778 20.5253 3.51184L17.4879 0.474589C17.1819 0.168568 16.775 0 16.3421 0C15.9092 0 15.5024 0.168568 15.1963 0.474589L10.4996 5.17108L5.80286 0.474589C5.49682 0.168568 5.08991 0 4.65703 0C4.22415 0 3.81724 0.168568 3.51121 0.474589L0.473837 3.51184C-0.157946 4.14359 -0.157946 5.17156 0.473837 5.80347L5.17052 10.5L0.473837 15.1965C-0.157946 15.8283 -0.157946 16.8562 0.473837 17.4882L3.51121 20.5254C3.81724 20.8314 4.22415 21 4.65703 21C5.08991 21 5.49682 20.8314 5.80286 20.5254L10.4996 15.8289L15.1963 20.5254C15.5023 20.8314 15.9092 21 16.3421 21C16.775 21 17.1819 20.8314 17.4879 20.5254L20.5253 17.4882C20.8314 17.1821 21 16.7752 21 16.3424C21 15.9095 20.8314 15.5026 20.5253 15.1966L15.8287 10.4999ZM19.5926 16.5552L16.5553 19.5925C16.4784 19.6693 16.3888 19.6807 16.3421 19.6807C16.2955 19.6807 16.2058 19.6693 16.129 19.5925L10.9659 14.4296C10.8372 14.3009 10.6683 14.2364 10.4996 14.2364C10.3309 14.2364 10.1621 14.3008 10.0333 14.4296L4.87026 19.5925C4.79338 19.6693 4.70375 19.6807 4.65711 19.6807C4.61039 19.6807 4.52076 19.6693 4.44388 19.5925L1.40651 16.5552C1.289 16.4376 1.289 16.2464 1.40651 16.1288L6.56956 10.966C6.82714 10.7084 6.82714 10.2909 6.56956 10.0334L1.40651 4.8706C1.289 4.75302 1.289 4.56181 1.40651 4.44423L4.4438 1.40698C4.52068 1.3301 4.61039 1.3187 4.65703 1.3187C4.70367 1.3187 4.79338 1.3301 4.87018 1.40698L10.0332 6.56983C10.2908 6.82739 10.7084 6.82739 10.9658 6.56983L16.1289 1.40698C16.2058 1.3301 16.2954 1.3187 16.342 1.3187C16.3887 1.3187 16.4784 1.3301 16.5552 1.40698L19.5926 4.44423C19.6694 4.52111 19.6809 4.61074 19.6809 4.65738C19.6809 4.70401 19.6695 4.79372 19.5926 4.8706L14.4297 10.0334C14.1722 10.291 14.1722 10.7086 14.4297 10.966L19.5926 16.1289C19.6695 16.2058 19.6809 16.2954 19.6809 16.3421C19.6809 16.3887 19.6695 16.4784 19.5926 16.5552Z" fill="white"/>
</svg>
